<?xml version="1.0" encoding="iso-8859-1"?><!-- Generator: Adobe Illustrator 18.1.1, SVG Export Plug-In . SVG Version: 6.00 Build 0)  -->
<svg style="enable-background:new 0 0 155.139 155.139;" height="512px" id="Capa_1" version="1.1"
    viewBox="0 0 155.139 155.139" width="512px" x="0px" xmlns="http://www.w3.org/2000/svg" y="0px"
    xml:space="preserve">
<g>
	<path
        d="M0,0v155.139h155.139V0H0z M77.056,44.65l10.806,61.286c1.671,9.44-6.546,18.778-18.336,20.86   c-11.797,2.076-22.71-3.89-24.369-13.33c-1.659-9.41,6.552-18.772,18.348-20.842c3.723-0.65,7.315-0.436,10.597,0.37l-11.134-63.1   l11.146-1.957c10.937,8.061,39.005,3.294,44.596,34.984C113.764,44.101,90.13,51.613,77.056,44.65z"
        fill="#FFFFFF" />
</g>
    <g>
</g>
    <g>
</g>
    <g>
</g>
    <g>
</g>
    <g>
</g>
    <g>
</g>
    <g>
</g>
    <g>
</g>
    <g>
</g>
    <g>
</g>
    <g>
</g>
    <g>
</g>
    <g>
</g>
    <g>
</g>
    <g>
</g>
</svg>
